┌────────────┬──────────────────────────────────────────────────────────────────┐
│ Name       │ Deployment Key                                                   │
├────────────┼──────────────────────────────────────────────────────────────────┤
│ Production │ JwHUj5JDoN7ppY7UdmARYu0cnoS3577e6ebe-c683-427e-9c18-c5826c30f5f5 │
├────────────┼──────────────────────────────────────────────────────────────────┤
│ Staging    │ cmuAkQHcA6DzlS2ENG_c_mzEWYaS577e6ebe-c683-427e-9c18-c5826c30f5f5 │
└────────────┴──────────────────────────────────────────────────────────────────┘
